{
  "main.css": "/static/css/main.3b88ff20.chunk.css",
  "main.js": "/static/js/main.e7b7bf7f.chunk.js",
  "main.js.map": "/static/js/main.e7b7bf7f.chunk.js.map",
  "runtime~main.js": "/static/js/runtime~main.a8a9905a.js",
  "runtime~main.js.map": "/static/js/runtime~main.a8a9905a.js.map",
  "static/css/2.63df2219.chunk.css": "/static/css/2.63df2219.chunk.css",
  "static/js/2.8615d22b.chunk.js": "/static/js/2.8615d22b.chunk.js",
  "static/js/2.8615d22b.chunk.js.map": "/static/js/2.8615d22b.chunk.js.map",
  "index.html": "/index.html",
  "precache-manifest.36d61959345ff3933378060e17008413.js": "/precache-manifest.36d61959345ff3933378060e17008413.js",
  "service-worker.js": "/service-worker.js",
  "static/css/2.63df2219.chunk.css.map": "/static/css/2.63df2219.chunk.css.map",
  "static/css/main.3b88ff20.chunk.css.map": "/static/css/main.3b88ff20.chunk.css.map",
  "static/media/custom.css": "/static/media/sprite_char.88f68fdf.png",
  "static/media/loader.gif": "/static/media/loader.0084d7bd.gif"
}