{
  "main.css": "/static/css/main.3010e2e4.chunk.css",
  "main.js": "/static/js/main.005f06f4.chunk.js",
  "main.js.map": "/static/js/main.005f06f4.chunk.js.map",
  "runtime~main.js": "/static/js/runtime~main.a8a9905a.js",
  "runtime~main.js.map": "/static/js/runtime~main.a8a9905a.js.map",
  "static/css/2.63df2219.chunk.css": "/static/css/2.63df2219.chunk.css",
  "static/js/2.90824be2.chunk.js": "/static/js/2.90824be2.chunk.js",
  "static/js/2.90824be2.chunk.js.map": "/static/js/2.90824be2.chunk.js.map",
  "index.html": "/index.html",
  "precache-manifest.a1819e0dff2e3cca33bd46e6aa83424a.js": "/precache-manifest.a1819e0dff2e3cca33bd46e6aa83424a.js",
  "service-worker.js": "/service-worker.js",
  "static/css/2.63df2219.chunk.css.map": "/static/css/2.63df2219.chunk.css.map",
  "static/css/main.3010e2e4.chunk.css.map": "/static/css/main.3010e2e4.chunk.css.map",
  "static/media/custom.css": "/static/media/sprite_char.88f68fdf.png",
  "static/media/loader.gif": "/static/media/loader.0084d7bd.gif"
}