{
  "main.css": "/static/css/main.1c2e49e9.chunk.css",
  "main.js": "/static/js/main.e5fd895c.chunk.js",
  "main.js.map": "/static/js/main.e5fd895c.chunk.js.map",
  "runtime~main.js": "/static/js/runtime~main.a8a9905a.js",
  "runtime~main.js.map": "/static/js/runtime~main.a8a9905a.js.map",
  "static/css/2.e4d40fa9.chunk.css": "/static/css/2.e4d40fa9.chunk.css",
  "static/js/2.8615d22b.chunk.js": "/static/js/2.8615d22b.chunk.js",
  "static/js/2.8615d22b.chunk.js.map": "/static/js/2.8615d22b.chunk.js.map",
  "index.html": "/index.html",
  "precache-manifest.298fe0e8acb1d1503b669e585ba53643.js": "/precache-manifest.298fe0e8acb1d1503b669e585ba53643.js",
  "service-worker.js": "/service-worker.js",
  "static/css/2.e4d40fa9.chunk.css.map": "/static/css/2.e4d40fa9.chunk.css.map",
  "static/css/main.1c2e49e9.chunk.css.map": "/static/css/main.1c2e49e9.chunk.css.map",
  "static/media/custom.css": "/static/media/sprite_char.88f68fdf.png",
  "static/media/loader.gif": "/static/media/loader.0084d7bd.gif"
}