{
  "main.css": "/static/css/main.956ff583.chunk.css",
  "main.js": "/static/js/main.b1b18c3e.chunk.js",
  "main.js.map": "/static/js/main.b1b18c3e.chunk.js.map",
  "runtime~main.js": "/static/js/runtime~main.a8a9905a.js",
  "runtime~main.js.map": "/static/js/runtime~main.a8a9905a.js.map",
  "static/css/2.5283714a.chunk.css": "/static/css/2.5283714a.chunk.css",
  "static/js/2.90824be2.chunk.js": "/static/js/2.90824be2.chunk.js",
  "static/js/2.90824be2.chunk.js.map": "/static/js/2.90824be2.chunk.js.map",
  "index.html": "/index.html",
  "precache-manifest.1b5b1dbaf6afed290a21ea124f9738b3.js": "/precache-manifest.1b5b1dbaf6afed290a21ea124f9738b3.js",
  "service-worker.js": "/service-worker.js",
  "static/css/2.5283714a.chunk.css.map": "/static/css/2.5283714a.chunk.css.map",
  "static/css/main.956ff583.chunk.css.map": "/static/css/main.956ff583.chunk.css.map",
  "static/media/custom.css": "/static/media/sprite_char.88f68fdf.png",
  "static/media/loader.gif": "/static/media/loader.0084d7bd.gif"
}