{
  "main.css": "/static/css/main.7100cc42.chunk.css",
  "main.js": "/static/js/main.8f2dcd4c.chunk.js",
  "main.js.map": "/static/js/main.8f2dcd4c.chunk.js.map",
  "runtime~main.js": "/static/js/runtime~main.a8a9905a.js",
  "runtime~main.js.map": "/static/js/runtime~main.a8a9905a.js.map",
  "static/css/2.956d84c2.chunk.css": "/static/css/2.956d84c2.chunk.css",
  "static/js/2.704dc548.chunk.js": "/static/js/2.704dc548.chunk.js",
  "static/js/2.704dc548.chunk.js.map": "/static/js/2.704dc548.chunk.js.map",
  "index.html": "/index.html",
  "precache-manifest.982172f00cbbed87671b22b5b022f281.js": "/precache-manifest.982172f00cbbed87671b22b5b022f281.js",
  "service-worker.js": "/service-worker.js",
  "static/css/2.956d84c2.chunk.css.map": "/static/css/2.956d84c2.chunk.css.map",
  "static/css/main.7100cc42.chunk.css.map": "/static/css/main.7100cc42.chunk.css.map",
  "static/media/custom.css": "/static/media/sprite_char.88f68fdf.png"
}