{
  "main.css": "/static/css/main.738479f6.chunk.css",
  "main.js": "/static/js/main.1fc984f8.chunk.js",
  "main.js.map": "/static/js/main.1fc984f8.chunk.js.map",
  "runtime~main.js": "/static/js/runtime~main.a8a9905a.js",
  "runtime~main.js.map": "/static/js/runtime~main.a8a9905a.js.map",
  "static/css/2.63df2219.chunk.css": "/static/css/2.63df2219.chunk.css",
  "static/js/2.704dc548.chunk.js": "/static/js/2.704dc548.chunk.js",
  "static/js/2.704dc548.chunk.js.map": "/static/js/2.704dc548.chunk.js.map",
  "index.html": "/index.html",
  "precache-manifest.ea603e90fbbc948a3d852af0153144a7.js": "/precache-manifest.ea603e90fbbc948a3d852af0153144a7.js",
  "service-worker.js": "/service-worker.js",
  "static/css/2.63df2219.chunk.css.map": "/static/css/2.63df2219.chunk.css.map",
  "static/css/main.738479f6.chunk.css.map": "/static/css/main.738479f6.chunk.css.map",
  "static/media/custom.css": "/static/media/sprite_char.88f68fdf.png"
}